…
``` r
aisle_num = length(unique(instacart$aisle_id))
```

``` r
aisle_most = instacart |>
  group_by(aisle) |>
  summarise(num_products = n()) |>
  arrange(desc(num_products))

aisle_most
```

    ## # A tibble: 134 × 2
    ##    aisle                         num_products
    ##    <chr>                                <int>
    ##  1 fresh vegetables                    150609
    ##  2 fresh fruits                        150473
    ##  3 packaged vegetables fruits           78493
    ##  4 yogurt                               55240
    ##  5 packaged cheese                      41699
    ##  6 water seltzer sparkling water        36617
    ##  7 milk                                 32644
    ##  8 chips pretzels                       31269
    ##  9 soy lactosefree                      26240
    ## 10 bread                                23635
    ## # ℹ 124 more rows
…
``` r
brfss_smart2010_cleaned = 
  brfss_smart2010 |>
  janitor::clean_names() |>
  rename("state"="locationabbr", "county"="locationdesc") |> 
  filter(topic=="Overall Health" & response %in% c("Excellent", "Very good", "Good", "Fair", "Poor"))
  
brfss_smart2010_cleaned$response = 
  factor(brfss_smart2010_cleaned$response, levels = c("Poor", "Fair", "Good", "Very good", "Excellent"), ordered = TRUE)
  
brfss_smart2010_cleaned
```

    ## # A tibble: 10,625 × 23
    ##     year state county       class topic question response sample_size data_value
    ##    <int> <chr> <chr>        <chr> <chr> <chr>    <ord>          <int>      <dbl>
    ##  1  2010 AL    AL - Jeffer… Heal… Over… How is … Excelle…          94       18.9
    ##  2  2010 AL    AL - Jeffer… Heal… Over… How is … Very go…         148       30  
    ##  3  2010 AL    AL - Jeffer… Heal… Over… How is … Good             208       33.1
    ##  4  2010 AL    AL - Jeffer… Heal… Over… How is … Fair             107       12.5
    ##  5  2010 AL    AL - Jeffer… Heal… Over… How is … Poor              45        5.5
    ##  6  2010 AL    AL - Mobile… Heal… Over… How is … Excelle…          91       15.6
    ##  7  2010 AL    AL - Mobile… Heal… Over… How is … Very go…         177       31.3
    ##  8  2010 AL    AL - Mobile… Heal… Over… How is … Good             224       31.2
    ##  9  2010 AL    AL - Mobile… Heal… Over… How is … Fair             120       15.5
    ## 10  2010 AL    AL - Mobile… Heal… Over… How is … Poor              66        6.4
    ## # ℹ 10,615 more rows
    ## # ℹ 14 more variables: confidence_limit_low <dbl>, confidence_limit_high <dbl>,
    ## #   display_order <int>, data_value_unit <chr>, data_value_type <chr>,
    ## #   data_value_footnote_symbol <chr>, data_value_footnote <chr>,
    ## #   data_source <chr>, class_id <chr>, topic_id <chr>, location_id <chr>,
    ## #   question_id <chr>, respid <chr>, geo_location <chr>
…
``` r
avg_values = 
brfss_smart2010_cleaned |>
  filter(response=="Excellent") |>
  select(-county) |>
  group_by(year, state) |>
  mutate(avg_data_value = mean(data_value, na.rm = TRUE)) |>
  select(year, state, avg_data_value)
  
avg_values
```

    ## # A tibble: 2,125 × 3
    ## # Groups:   year, state [443]
    ##     year state avg_data_value
    ##    <int> <chr>          <dbl>
    ##  1  2010 AL              18.4
    ##  2  2010 AL              18.4
    ##  3  2010 AL              18.4
    ##  4  2010 AZ              21.6
    ##  5  2010 AZ              21.6
    ##  6  2010 AZ              21.6
    ##  7  2010 AR              25.4
    ##  8  2010 AR              25.4
    ##  9  2010 AR              25.4
    ## 10  2010 CA              23.9
    ## # ℹ 2,115 more rows
…
